<svg
  xmlns="http://www.w3.org/2000/svg"
  class="svg svg--feather feather-archive" viewBox="0 0 24 24"
  fill="none"
  stroke="currentColor"
  stroke-width="1"
  stroke-linecap="round"
  stroke-linejoin="round"
>
  <polyline points="21 8 21 21 3 21 3 8" />
  <rect x="1" y="3" width="22" height="5" />
  <line x1="10" y1="12" x2="14" y2="12" />
</svg>
