<svg
  xmlns="http://www.w3.org/2000/svg"
  class="svg svg--feather feather-arrow-up-right" viewBox="0 0 24 24"
  fill="none"
  stroke="currentColor"
  stroke-width="1"
  stroke-linecap="round"
  stroke-linejoin="round"
>
  <line x1="7" y1="17" x2="17" y2="7" />
  <polyline points="7 7 17 7 17 17" />
</svg>
