<svg
  xmlns="http://www.w3.org/2000/svg"
  class="svg svg--feather feather-bar-chart" viewBox="0 0 24 24"
  fill="none"
  stroke="currentColor"
  stroke-width="1"
  stroke-linecap="round"
  stroke-linejoin="round"
>
  <line x1="12" y1="20" x2="12" y2="10" />
  <line x1="18" y1="20" x2="18" y2="4" />
  <line x1="6" y1="20" x2="6" y2="16" />
</svg>
