<svg
  xmlns="http://www.w3.org/2000/svg"
  class="svg svg--feather feather-bluetooth" viewBox="0 0 24 24"
  fill="none"
  stroke="currentColor"
  stroke-width="1"
  stroke-linecap="round"
  stroke-linejoin="round"
>
  <polyline points="6.5 6.5 17.5 17.5 12 23 12 1 17.5 6.5 6.5 17.5" />
</svg>
