<svg
  xmlns="http://www.w3.org/2000/svg"
  class="svg svg--feather feather-bold" viewBox="0 0 24 24"
  fill="none"
  stroke="currentColor"
  stroke-width="1"
  stroke-linecap="round"
  stroke-linejoin="round"
>
  <path d="M6 4h8a4 4 0 0 1 4 4 4 4 0 0 1-4 4H6z" />
  <path d="M6 12h9a4 4 0 0 1 4 4 4 4 0 0 1-4 4H6z" />
</svg>
