<svg
  xmlns="http://www.w3.org/2000/svg"
  class="svg svg--feather feather-book" viewBox="0 0 24 24"
  fill="none"
  stroke="currentColor"
  stroke-width="1"
  stroke-linecap="round"
  stroke-linejoin="round"
>
  <path d="M4 19.5A2.5 2.5 0 0 1 6.5 17H20" />
  <path d="M6.5 2H20v20H6.5A2.5 2.5 0 0 1 4 19.5v-15A2.5 2.5 0 0 1 6.5 2z" />
</svg>
