<svg
  xmlns="http://www.w3.org/2000/svg"
  class="svg svg--feather feather-briefcase" viewBox="0 0 24 24"
  fill="none"
  stroke="currentColor"
  stroke-width="1"
  stroke-linecap="round"
  stroke-linejoin="round"
>
  <rect x="2" y="7" width="20" height="14" rx="2" ry="2" />
  <path d="M16 21V5a2 2 0 0 0-2-2h-4a2 2 0 0 0-2 2v16" />
</svg>
