<svg
  xmlns="http://www.w3.org/2000/svg"
  class="svg svg--feather feather-chevrons-down" viewBox="0 0 24 24"
  fill="none"
  stroke="currentColor"
  stroke-width="1"
  stroke-linecap="round"
  stroke-linejoin="round"
>
  <polyline points="7 13 12 18 17 13" />
  <polyline points="7 6 12 11 17 6" />
</svg>
