<svg
  xmlns="http://www.w3.org/2000/svg"
  class="svg svg--feather feather-chevron-up" viewBox="0 0 24 24"
  fill="none"
  stroke="currentColor"
  stroke-width="1"
  stroke-linecap="round"
  stroke-linejoin="round"
>
  <polyline points="18 15 12 9 6 15" />
</svg>
