<svg
  xmlns="http://www.w3.org/2000/svg"
  class="svg svg--feather feather-chevron-left" viewBox="0 0 24 24"
  fill="none"
  stroke="currentColor"
  stroke-width="1"
  stroke-linecap="round"
  stroke-linejoin="round"
>
  <polyline points="15 18 9 12 15 6" />
</svg>
