<svg
  xmlns="http://www.w3.org/2000/svg"
  class="svg svg--feather feather-corner-down-right" viewBox="0 0 24 24"
  fill="none"
  stroke="currentColor"
  stroke-width="1"
  stroke-linecap="round"
  stroke-linejoin="round"
>
  <polyline points="15 10 20 15 15 20" />
  <path d="M4 4v7a4 4 0 0 0 4 4h12" />
</svg>
