<svg
  xmlns="http://www.w3.org/2000/svg"
  class="svg svg--feather feather-corner-up-right" viewBox="0 0 24 24"
  fill="none"
  stroke="currentColor"
  stroke-width="1"
  stroke-linecap="round"
  stroke-linejoin="round"
>
  <polyline points="15 14 20 9 15 4" />
  <path d="M4 20v-7a4 4 0 0 1 4-4h12" />
</svg>
