<svg
  xmlns="http://www.w3.org/2000/svg"
  class="svg svg--feather feather-corner-down-left" viewBox="0 0 24 24"
  fill="none"
  stroke="currentColor"
  stroke-width="1"
  stroke-linecap="round"
  stroke-linejoin="round"
>
  <polyline points="9 10 4 15 9 20" />
  <path d="M20 4v7a4 4 0 0 1-4 4H4" />
</svg>
