<svg
  xmlns="http://www.w3.org/2000/svg"
  class="svg svg--feather feather-disc" viewBox="0 0 24 24"
  fill="none"
  stroke="currentColor"
  stroke-width="1"
  stroke-linecap="round"
  stroke-linejoin="round"
>
  <circle cx="12" cy="12" r="10" />
  <circle cx="12" cy="12" r="3" />
</svg>
