<svg
  xmlns="http://www.w3.org/2000/svg"
  class="svg svg--feather feather-image" viewBox="0 0 24 24"
  fill="none"
  stroke="currentColor"
  stroke-width="1"
  stroke-linecap="round"
  stroke-linejoin="round"
>
  <rect x="3" y="3" width="18" height="18" rx="2" ry="2" />
  <circle cx="8.5" cy="8.5" r="1.5" />
  <polyline points="21 15 16 10 5 21" />
</svg>
