<svg
  xmlns="http://www.w3.org/2000/svg"
  class="svg svg--feather feather-link-2" viewBox="0 0 24 24"
  fill="none"
  stroke="currentColor"
  stroke-width="1"
  stroke-linecap="round"
  stroke-linejoin="round"
>
  <path d="M15 7h3a5 5 0 0 1 5 5 5 5 0 0 1-5 5h-3m-6 0H6a5 5 0 0 1-5-5 5 5 0 0 1 5-5h3" />
  <line x1="8" y1="12" x2="16" y2="12" />
</svg>
