<svg
  xmlns="http://www.w3.org/2000/svg"
  class="svg svg--feather feather-pause" viewBox="0 0 24 24"
  fill="none"
  stroke="currentColor"
  stroke-width="1"
  stroke-linecap="round"
  stroke-linejoin="round"
>
  <rect x="6" y="4" width="4" height="16" />
  <rect x="14" y="4" width="4" height="16" />
</svg>
