<svg
  xmlns="http://www.w3.org/2000/svg"
  class="svg svg--feather feather-power" viewBox="0 0 24 24"
  fill="none"
  stroke="currentColor"
  stroke-width="1"
  stroke-linecap="round"
  stroke-linejoin="round"
>
  <path d="M18.36 6.64a9 9 0 1 1-12.73 0" />
  <line x1="12" y1="2" x2="12" y2="12" />
</svg>
