<svg
  xmlns="http://www.w3.org/2000/svg"
  class="svg svg--feather feather-refresh-cw" viewBox="0 0 24 24"
  fill="none"
  stroke="currentColor"
  stroke-width="1"
  stroke-linecap="round"
  stroke-linejoin="round"
>
  <polyline points="23 4 23 10 17 10" />
  <polyline points="1 20 1 14 7 14" />
  <path d="M3.51 9a9 9 0 0 1 14.85-3.36L23 10M1 14l4.64 4.36A9 9 0 0 0 20.49 15" />
</svg>
