<svg
  xmlns="http://www.w3.org/2000/svg"
  class="svg svg--feather feather-send" viewBox="0 0 24 24"
  fill="none"
  stroke="currentColor"
  stroke-width="1"
  stroke-linecap="round"
  stroke-linejoin="round"
>
  <line x1="22" y1="2" x2="11" y2="13" />
  <polygon points="22 2 15 22 11 13 2 9 22 2" />
</svg>
