<svg
  xmlns="http://www.w3.org/2000/svg"
  class="svg svg--feather feather-shopping-cart" viewBox="0 0 24 24"
  fill="none"
  stroke="currentColor"
  stroke-width="1"
  stroke-linecap="round"
  stroke-linejoin="round"
>
  <circle cx="9" cy="21" r="1" />
  <circle cx="20" cy="21" r="1" />
  <path d="M1 1h4l2.68 13.39a2 2 0 0 0 2 1.61h9.72a2 2 0 0 0 2-1.61L23 6H6" />
</svg>
