<svg
  xmlns="http://www.w3.org/2000/svg"
  class="svg svg--feather feather-sidebar" viewBox="0 0 24 24"
  fill="none"
  stroke="currentColor"
  stroke-width="1"
  stroke-linecap="round"
  stroke-linejoin="round"
>
  <rect x="3" y="3" width="18" height="18" rx="2" ry="2" />
  <line x1="9" y1="3" x2="9" y2="21" />
</svg>
