<svg
  xmlns="http://www.w3.org/2000/svg"
  class="svg svg--feather feather-trending-up" viewBox="0 0 24 24"
  fill="none"
  stroke="currentColor"
  stroke-width="1"
  stroke-linecap="round"
  stroke-linejoin="round"
>
  <polyline points="23 6 13.5 15.5 8.5 10.5 1 18" />
  <polyline points="17 6 23 6 23 12" />
</svg>
