<svg
  xmlns="http://www.w3.org/2000/svg"
  class="svg svg--feather feather-truck" viewBox="0 0 24 24"
  fill="none"
  stroke="currentColor"
  stroke-width="1"
  stroke-linecap="round"
  stroke-linejoin="round"
>
  <rect x="1" y="3" width="15" height="13" />
  <polygon points="16 8 20 8 23 11 23 16 16 16 16 8" />
  <circle cx="5.5" cy="18.5" r="2.5" />
  <circle cx="18.5" cy="18.5" r="2.5" />
</svg>
