<svg
  xmlns="http://www.w3.org/2000/svg"
  class="svg svg--feather feather-tv" viewBox="0 0 24 24"
  fill="none"
  stroke="currentColor"
  stroke-width="1"
  stroke-linecap="round"
  stroke-linejoin="round"
>
  <rect x="2" y="7" width="20" height="15" rx="2" ry="2" />
  <polyline points="17 2 12 7 7 2" />
</svg>
