<svg
  xmlns="http://www.w3.org/2000/svg"
  class="svg svg--feather feather-video" viewBox="0 0 24 24"
  fill="none"
  stroke="currentColor"
  stroke-width="1"
  stroke-linecap="round"
  stroke-linejoin="round"
>
  <polygon points="23 7 16 12 23 17 23 7" />
  <rect x="1" y="5" width="15" height="14" rx="2" ry="2" />
</svg>
