<svg
  xmlns="http://www.w3.org/2000/svg"
  class="svg svg--feather feather-zoom-out" viewBox="0 0 24 24"
  fill="none"
  stroke="currentColor"
  stroke-width="1"
  stroke-linecap="round"
  stroke-linejoin="round"
>
  <circle cx="11" cy="11" r="8" />
  <line x1="21" y1="21" x2="16.65" y2="16.65" />
  <line x1="8" y1="11" x2="14" y2="11" />
</svg>
